Mon Apr 02 2018 18:46:37 GMT+0400 (Arabian Standard Time)        ||main server||Server setup initiating... reading clientsList
Mon Apr 02 2018 18:46:37 GMT+0400 (Arabian Standard Time)        ||main server||Server setup completed successfully... ready for data
Mon Apr 02 2018 18:46:40 GMT+0400 (Arabian Standard Time)        data received by server : {"cid" : "RID","flags": "I"}
Mon Apr 02 2018 18:46:40 GMT+0400 (Arabian Standard Time)        ERROR: client with ID RID Attempting to talk to server with no valid ID, terminating connection
Mon Apr 02 2018 18:46:40 GMT+0400 (Arabian Standard Time)        ||main server|| a client connection has terminated
Mon Apr 02 2018 18:46:52 GMT+0400 (Arabian Standard Time)        ||main server||Server setup initiating... reading clientsList
Mon Apr 02 2018 18:46:52 GMT+0400 (Arabian Standard Time)        ||main server||Server setup completed successfully... ready for data
Mon Apr 02 2018 18:46:59 GMT+0400 (Arabian Standard Time)        data received by server : {"cid" : "RID","flags": "I"}
Mon Apr 02 2018 18:46:59 GMT+0400 (Arabian Standard Time)        ||module firebaseWrapper|| reading data firebase of client: RID
Mon Apr 02 2018 18:48:02 GMT+0400 (Arabian Standard Time)        ||main server|| a client connection has terminated
Mon Apr 02 2018 18:48:02 GMT+0400 (Arabian Standard Time)        ||main server||error:-> Error: read ECONNRESET
Mon Apr 02 2018 18:48:05 GMT+0400 (Arabian Standard Time)        ||main server||Server setup initiating... reading clientsList
Mon Apr 02 2018 18:48:05 GMT+0400 (Arabian Standard Time)        ||main server||Server setup completed successfully... ready for data
Mon Apr 02 2018 18:48:06 GMT+0400 (Arabian Standard Time)        data received by server : {"cid" : "RID","flags": "I"}
Mon Apr 02 2018 18:48:06 GMT+0400 (Arabian Standard Time)        ||module firebaseWrapper|| reading data firebase of client: RID
Mon Apr 02 2018 18:49:34 GMT+0400 (Arabian Standard Time)        ||main server||Server setup initiating... reading clientsList
Mon Apr 02 2018 18:49:34 GMT+0400 (Arabian Standard Time)        ||main server||Server setup completed successfully... ready for data
Mon Apr 02 2018 18:49:36 GMT+0400 (Arabian Standard Time)        data received by server : {"cid" : "RID","flags": "I"}
Mon Apr 02 2018 18:49:36 GMT+0400 (Arabian Standard Time)        ||module firebaseWrapper|| reading data firebase of client: RID
Mon Apr 02 2018 18:51:47 GMT+0400 (Arabian Standard Time)        ||main server||Server setup initiating... reading clientsList
Mon Apr 02 2018 18:51:47 GMT+0400 (Arabian Standard Time)        ||main server||Server setup completed successfully... ready for data
Mon Apr 02 2018 18:51:48 GMT+0400 (Arabian Standard Time)        data received by server : {"cid" : "RID","flags": "I"}
Mon Apr 02 2018 18:51:48 GMT+0400 (Arabian Standard Time)        ||module firebaseWrapper|| reading data firebase of client: RID
Mon Apr 02 2018 18:53:04 GMT+0400 (Arabian Standard Time)        ||main server|| a client connection has terminated
Mon Apr 02 2018 18:53:04 GMT+0400 (Arabian Standard Time)        ||main server||error:-> Error: read ECONNRESET
Mon Apr 02 2018 18:53:04 GMT+0400 (Arabian Standard Time)        data received by server : {"cid" : "RID","flags": "I"}
Mon Apr 02 2018 18:53:05 GMT+0400 (Arabian Standard Time)        ||module firebaseWrapper|| reading data firebase of client: RID
Mon Apr 02 2018 18:53:07 GMT+0400 (Arabian Standard Time)        ||main server||Server setup initiating... reading clientsList
Mon Apr 02 2018 18:53:07 GMT+0400 (Arabian Standard Time)        ||main server||Server setup completed successfully... ready for data
Mon Apr 02 2018 18:53:08 GMT+0400 (Arabian Standard Time)        data received by server : {"cid" : "RID","flags": "I"}
Mon Apr 02 2018 18:53:08 GMT+0400 (Arabian Standard Time)        ||module firebaseWrapper|| reading data firebase of client: RID
Mon Apr 02 2018 18:54:28 GMT+0400 (Arabian Standard Time)        ||main server||error:-> Error: read ECONNRESET
Mon Apr 02 2018 18:54:28 GMT+0400 (Arabian Standard Time)        ||main server|| a client connection has terminated
Mon Apr 02 2018 18:54:30 GMT+0400 (Arabian Standard Time)        ||main server||Server setup initiating... reading clientsList
Mon Apr 02 2018 18:54:30 GMT+0400 (Arabian Standard Time)        ||main server||Server setup completed successfully... ready for data
Mon Apr 02 2018 18:54:32 GMT+0400 (Arabian Standard Time)        data received by server : {"cid" : "RID","flags": "I"}
Mon Apr 02 2018 18:54:32 GMT+0400 (Arabian Standard Time)        ||module firebaseWrapper|| reading data firebase of client: RID
